Analysis in Practice Part 2 - Tidy
…
A Quick Inspection and Debugging

So we can see that we have a bunch of variables for each quarterback in this wide format. Let’s turn it into the long format similar to above.

dat <- raw %>%
    gather(variable, value, -qb)
dat

## # A tibble: 150,672 x 3
##                  qb variable value
##               <chr>    <chr> <chr>
##  1        Matt Ryan      att    34
##  2   Jameis Winston      att    37
##  3     Mike Glennon      att    11
##  4 Matthew Stafford      att    36
##  5     Sam Bradford      att    40
##  6     Carson Wentz      att    47
##  7      Eli Manning      att    36
##  8 Ryan Fitzpatrick      att    27
##  9      Bryce Petty      att     2
## 10   Ryan Tannehill      att    28
## # ... with 150,662 more rows
…
tmp <- dat %>%
    mutate(value = as.numeric(value))

## Warning in evalq(as.numeric(c("34", "37", "11", "36", "40", "47", "36", :
## NAs introduced by coercion

## Filter on NA values where numeric conversion fails
## Then take unique values and print first 5
dat %>%
    filter(tmp$value %>% is.na) %>%
    select(value) %>% unique %>%
    print(n = 5)

## # A tibble: 98 x 1
##   value
##   <chr>
## 1  <NA>
## 2   32t
## 3   28t
## 4   95t
## 5   65t
## # ... with 93 more rows
…
